{"_id":{"$oid":"57ea09f74cecfbd391489c9f"},"department_id":{"$numberLong":"10"},"department_name":"Administration","manager_id":{"$numberLong":"200"},"location_id":{"$numberLong":"1700"}}
{"_id":{"$oid":"57ea09f74cecfbd391489ca0"},"department_id":{"$numberLong":"20"},"department_name":"Marketing","manager_id":{"$numberLong":"201"},"location_id":{"$numberLong":"1800"}}
{"_id":{"$oid":"57ea09f74cecfbd391489ca1"},"department_id":{"$numberLong":"30"},"department_name":"Purchasing","manager_id":{"$numberLong":"114"},"location_id":{"$numberLong":"1700"}}
{"_id":{"$oid":"57ea09f74cecfbd391489ca2"},"department_id":{"$numberLong":"40"},"department_name":"Human Resources","manager_id":{"$numberLong":"203"},"location_id":{"$numberLong":"2400"}}
{"_id":{"$oid":"57ea09f74cecfbd391489ca3"},"department_id":{"$numberLong":"50"},"department_name":"Shipping","manager_id":{"$numberLong":"121"},"location_id":{"$numberLong":"1500"}}
{"_id":{"$oid":"57ea09f74cecfbd391489ca4"},"department_id":{"$numberLong":"60"},"department_name":"IT","manager_id":{"$numberLong":"103"},"location_id":{"$numberLong":"1400"}}
{"_id":{"$oid":"57ea09f74cecfbd391489ca5"},"department_id":{"$numberLong":"70"},"department_name":"Public Relations","manager_id":{"$numberLong":"204"},"location_id":{"$numberLong":"2700"}}
{"_id":{"$oid":"57ea09f74cecfbd391489ca6"},"department_id":{"$numberLong":"80"},"department_name":"Sales","manager_id":{"$numberLong":"145"},"location_id":{"$numberLong":"2500"}}
{"_id":{"$oid":"57ea09f74cecfbd391489ca7"},"department_id":{"$numberLong":"90"},"department_name":"Executive","manager_id":{"$numberLong":"100"},"location_id":{"$numberLong":"1700"}}
{"_id":{"$oid":"57ea09f74cecfbd391489ca8"},"department_id":{"$numberLong":"100"},"department_name":"Finance","manager_id":{"$numberLong":"108"},"location_id":{"$numberLong":"1700"}}
{"_id":{"$oid":"57ea09f74cecfbd391489ca9"},"department_id":{"$numberLong":"110"},"department_name":"Accounting","manager_id":{"$numberLong":"205"},"location_id":{"$numberLong":"1700"}}
{"_id":{"$oid":"57ea09f74cecfbd391489caa"},"department_id":{"$numberLong":"120"},"department_name":"Treasury","location_id":{"$numberLong":"1700"}}
{"_id":{"$oid":"57ea09f74cecfbd391489cab"},"department_id":{"$numberLong":"130"},"department_name":"Corporate Tax","location_id":{"$numberLong":"1700"}}
{"_id":{"$oid":"57ea09f74cecfbd391489cac"},"department_id":{"$numberLong":"140"},"department_name":"Control And Credit","location_id":{"$numberLong":"1700"}}
{"_id":{"$oid":"57ea09f74cecfbd391489cad"},"department_id":{"$numberLong":"150"},"department_name":"Shareholder Services","location_id":{"$numberLong":"1700"}}
{"_id":{"$oid":"57ea09f74cecfbd391489cae"},"department_id":{"$numberLong":"160"},"department_name":"Benefits","location_id":{"$numberLong":"1700"}}
{"_id":{"$oid":"57ea09f74cecfbd391489caf"},"department_id":{"$numberLong":"170"},"department_name":"Manufacturing","location_id":{"$numberLong":"1700"}}
{"_id":{"$oid":"57ea09f74cecfbd391489cb0"},"department_id":{"$numberLong":"180"},"department_name":"Construction","location_id":{"$numberLong":"1700"}}
{"_id":{"$oid":"57ea09f74cecfbd391489cb1"},"department_id":{"$numberLong":"190"},"department_name":"Contracting","location_id":{"$numberLong":"1700"}}
{"_id":{"$oid":"57ea09f74cecfbd391489cb2"},"department_id":{"$numberLong":"200"},"department_name":"Operations","location_id":{"$numberLong":"1700"}}
{"_id":{"$oid":"57ea09f74cecfbd391489cb3"},"department_id":{"$numberLong":"210"},"department_name":"IT Support","location_id":{"$numberLong":"1700"}}
{"_id":{"$oid":"57ea09f74cecfbd391489cb4"},"department_id":{"$numberLong":"220"},"department_name":"NOC","location_id":{"$numberLong":"1700"}}
{"_id":{"$oid":"57ea09f74cecfbd391489cb5"},"department_id":{"$numberLong":"230"},"department_name":"IT Helpdesk","location_id":{"$numberLong":"1700"}}
{"_id":{"$oid":"57ea09f74cecfbd391489cb6"},"department_id":{"$numberLong":"240"},"department_name":"Government Sales","location_id":{"$numberLong":"1700"}}
{"_id":{"$oid":"57ea09f74cecfbd391489cb7"},"department_id":{"$numberLong":"250"},"department_name":"Retail Sales","location_id":{"$numberLong":"1700"}}
{"_id":{"$oid":"57ea09f74cecfbd391489cb8"},"department_id":{"$numberLong":"260"},"department_name":"Recruiting","location_id":{"$numberLong":"1700"}}
{"_id":{"$oid":"57ea09f74cecfbd391489cb9"},"department_id":{"$numberLong":"270"},"department_name":"Payroll","location_id":{"$numberLong":"1700"}}
{"_id":{"$oid":"57f1fc0b4cecfbd391489cba"},"department_id":{"$numberLong":"10"},"department_name":"Administration","manager_id":{"$numberLong":"200"},"location_id":{"$numberLong":"1700"}}
{"_id":{"$oid":"57f1fc0b4cecfbd391489cbb"},"department_id":{"$numberLong":"20"},"department_name":"Marketing","manager_id":{"$numberLong":"201"},"location_id":{"$numberLong":"1800"}}
{"_id":{"$oid":"57f1fc0b4cecfbd391489cbc"},"department_id":{"$numberLong":"30"},"department_name":"Purchasing","manager_id":{"$numberLong":"114"},"location_id":{"$numberLong":"1700"}}
{"_id":{"$oid":"57f1fc0b4cecfbd391489cbd"},"department_id":{"$numberLong":"40"},"department_name":"Human Resources","manager_id":{"$numberLong":"203"},"location_id":{"$numberLong":"2400"}}
{"_id":{"$oid":"57f1fc0b4cecfbd391489cbe"},"department_id":{"$numberLong":"50"},"department_name":"Shipping","manager_id":{"$numberLong":"121"},"location_id":{"$numberLong":"1500"}}
{"_id":{"$oid":"57f1fc0b4cecfbd391489cbf"},"department_id":{"$numberLong":"60"},"department_name":"IT","manager_id":{"$numberLong":"103"},"location_id":{"$numberLong":"1400"}}
{"_id":{"$oid":"57f1fc0b4cecfbd391489cc0"},"department_id":{"$numberLong":"70"},"department_name":"Public Relations","manager_id":{"$numberLong":"204"},"location_id":{"$numberLong":"2700"}}
{"_id":{"$oid":"57f1fc0b4cecfbd391489cc1"},"department_id":{"$numberLong":"80"},"department_name":"Sales","manager_id":{"$numberLong":"145"},"location_id":{"$numberLong":"2500"}}
{"_id":{"$oid":"57f1fc0b4cecfbd391489cc2"},"department_id":{"$numberLong":"90"},"department_name":"Executive","manager_id":{"$numberLong":"100"},"location_id":{"$numberLong":"1700"}}
{"_id":{"$oid":"57f1fc0b4cecfbd391489cc3"},"department_id":{"$numberLong":"100"},"department_name":"Finance","manager_id":{"$numberLong":"108"},"location_id":{"$numberLong":"1700"}}
{"_id":{"$oid":"57f1fc0b4cecfbd391489cc4"},"department_id":{"$numberLong":"110"},"department_name":"Accounting","manager_id":{"$numberLong":"205"},"location_id":{"$numberLong":"1700"}}
{"_id":{"$oid":"57f1fc0b4cecfbd391489cc5"},"department_id":{"$numberLong":"120"},"department_name":"Treasury","location_id":{"$numberLong":"1700"}}
{"_id":{"$oid":"57f1fc0b4cecfbd391489cc6"},"department_id":{"$numberLong":"130"},"department_name":"Corporate Tax","location_id":{"$numberLong":"1700"}}
{"_id":{"$oid":"57f1fc0b4cecfbd391489cc7"},"department_id":{"$numberLong":"140"},"department_name":"Control And Credit","location_id":{"$numberLong":"1700"}}
{"_id":{"$oid":"57f1fc0b4cecfbd391489cc8"},"department_id":{"$numberLong":"150"},"department_name":"Shareholder Services","location_id":{"$numberLong":"1700"}}
{"_id":{"$oid":"57f1fc0b4cecfbd391489cc9"},"department_id":{"$numberLong":"160"},"department_name":"Benefits","location_id":{"$numberLong":"1700"}}
{"_id":{"$oid":"57f1fc0b4cecfbd391489cca"},"department_id":{"$numberLong":"170"},"department_name":"Manufacturing","location_id":{"$numberLong":"1700"}}
{"_id":{"$oid":"57f1fc0b4cecfbd391489ccb"},"department_id":{"$numberLong":"180"},"department_name":"Construction","location_id":{"$numberLong":"1700"}}
{"_id":{"$oid":"57f1fc0b4cecfbd391489ccc"},"department_id":{"$numberLong":"190"},"department_name":"Contracting","location_id":{"$numberLong":"1700"}}
{"_id":{"$oid":"57f1fc0b4cecfbd391489ccd"},"department_id":{"$numberLong":"200"},"department_name":"Operations","location_id":{"$numberLong":"1700"}}
{"_id":{"$oid":"57f1fc0b4cecfbd391489cce"},"department_id":{"$numberLong":"210"},"department_name":"IT Support","location_id":{"$numberLong":"1700"}}
{"_id":{"$oid":"57f1fc0b4cecfbd391489ccf"},"department_id":{"$numberLong":"220"},"department_name":"NOC","location_id":{"$numberLong":"1700"}}
{"_id":{"$oid":"57f1fc0b4cecfbd391489cd0"},"department_id":{"$numberLong":"230"},"department_name":"IT Helpdesk","location_id":{"$numberLong":"1700"}}
{"_id":{"$oid":"57f1fc0b4cecfbd391489cd1"},"department_id":{"$numberLong":"240"},"department_name":"Government Sales","location_id":{"$numberLong":"1700"}}
{"_id":{"$oid":"57f1fc0b4cecfbd391489cd2"},"department_id":{"$numberLong":"250"},"department_name":"Retail Sales","location_id":{"$numberLong":"1700"}}
{"_id":{"$oid":"57f1fc0b4cecfbd391489cd3"},"department_id":{"$numberLong":"260"},"department_name":"Recruiting","location_id":{"$numberLong":"1700"}}
{"_id":{"$oid":"57f1fc0b4cecfbd391489cd4"},"department_id":{"$numberLong":"270"},"department_name":"Payroll","location_id":{"$numberLong":"1700"}}
