 
18:51:47.492 [Thread-0] DEBUG org.springframework.boot.devtools.restart.classloader.RestartClassLoader - Created RestartClassLoader org.springframework.boot.devtools.restart.classloader.RestartClassLoader@551dc5c0

  .   ____          _            __ _ _
 /\\ / ___'_ __ _ _(_)_ __  __ _ \ \ \ \
( ( )\___ | '_ | '_| | '_ \/ _` | \ \ \ \
 \\/  ___)| |_)| | | | | || (_| |  ) ) ) )
  '  |____| .__|_| |_|_| |_\__, | / / / /
 =========|_|==============|___/=/_/_/_/
 :: Spring Boot ::                (v2.6.4)

2022-03-05 18:51:50.230  INFO 77000 --- [  restartedMain] com.app.Application                      : Starting Application using Java 17.0.1 on greenalien with PID 77000 (/home/greenalien/Build/PG-DAC_Course-Material/J2EE/lab_exam/210940120174/target/classes started by greenalien in /home/greenalien/Build/PG-DAC_Course-Material/J2EE/lab_exam/210940120174)
2022-03-05 18:51:50.240  INFO 77000 --- [  restartedMain] com.app.Application                      : No active profile set, falling back to 1 default profile: "default"
2022-03-05 18:51:50.534  INFO 77000 --- [  restartedMain] .e.DevToolsPropertyDefaultsPostProcessor : Devtools property defaults active! Set 'spring.devtools.add-properties' to 'false' to disable
2022-03-05 18:51:50.541  INFO 77000 --- [  restartedMain] .e.DevToolsPropertyDefaultsPostProcessor : For additional web related logging consider setting the 'logging.level.web' property to 'DEBUG'
2022-03-05 18:51:56.399  INFO 77000 --- [  restartedMain] .s.d.r.c.RepositoryConfigurationDelegate : Bootstrapping Spring Data JPA repositories in DEFAULT mode.
2022-03-05 18:51:56.582  INFO 77000 --- [  restartedMain] .s.d.r.c.RepositoryConfigurationDelegate : Finished Spring Data repository scanning in 154 ms. Found 2 JPA repository interfaces.
2022-03-05 18:51:59.369  INFO 77000 --- [  restartedMain] o.s.b.w.embedded.tomcat.TomcatWebServer  : Tomcat initialized with port(s): 8080 (http)
2022-03-05 18:51:59.371  INFO 77000 --- [  restartedMain] o.a.catalina.core.AprLifecycleListener   : Loaded Apache Tomcat Native library [1.2.31] using APR version [1.7.0].
2022-03-05 18:51:59.371  INFO 77000 --- [  restartedMain] o.a.catalina.core.AprLifecycleListener   : APR capabilities: IPv6 [true], sendfile [true], accept filters [false], random [true], UDS [true].
2022-03-05 18:51:59.371  INFO 77000 --- [  restartedMain] o.a.catalina.core.AprLifecycleListener   : APR/OpenSSL configuration: useAprConnector [false], useOpenSSL [true]
2022-03-05 18:51:59.378  INFO 77000 --- [  restartedMain] o.a.catalina.core.AprLifecycleListener   : OpenSSL successfully initialized [OpenSSL 1.1.1m  14 Dec 2021]
2022-03-05 18:51:59.408  INFO 77000 --- [  restartedMain] o.apache.catalina.core.StandardService   : Starting service [Tomcat]
2022-03-05 18:51:59.409  INFO 77000 --- [  restartedMain] org.apache.catalina.core.StandardEngine  : Starting Servlet engine: [Apache Tomcat/9.0.58]
2022-03-05 18:52:00.167  INFO 77000 --- [  restartedMain] org.apache.jasper.servlet.TldScanner     : At least one JAR was scanned for TLDs yet contained no TLDs. Enable debug logging for this logger for a complete list of JARs that were scanned but no TLDs were found in them. Skipping unneeded JARs during scanning can improve startup time and JSP compilation time.
2022-03-05 18:52:00.185  INFO 77000 --- [  restartedMain] o.a.c.c.C.[.[localhost].[/210940120174]  : Initializing Spring embedded WebApplicationContext
2022-03-05 18:52:00.186  INFO 77000 --- [  restartedMain] w.s.c.ServletWebServerApplicationContext : Root WebApplicationContext: initialization completed in 9617 ms
2022-03-05 18:52:00.409  INFO 77000 --- [  restartedMain] o.hibernate.jpa.internal.util.LogHelper  : HHH000204: Processing PersistenceUnitInfo [name: default]
2022-03-05 18:52:00.503  INFO 77000 --- [  restartedMain] org.hibernate.Version                    : HHH000412: Hibernate ORM core version 5.6.5.Final
2022-03-05 18:52:00.814  INFO 77000 --- [  restartedMain] o.hibernate.annotations.common.Version   : HCANN000001: Hibernate Commons Annotations {5.1.2.Final}
2022-03-05 18:52:01.071  INFO 77000 --- [  restartedMain] com.zaxxer.hikari.HikariDataSource       : HikariPool-1 - Starting...
2022-03-05 18:52:01.441  INFO 77000 --- [  restartedMain] com.zaxxer.hikari.HikariDataSource       : HikariPool-1 - Start completed.
2022-03-05 18:52:01.550  INFO 77000 --- [  restartedMain] org.hibernate.dialect.Dialect            : HHH000400: Using dialect: org.hibernate.dialect.MySQL8Dialect
2022-03-05 18:52:07.477  INFO 77000 --- [  restartedMain] o.h.e.t.j.p.i.JtaPlatformInitiator       : HHH000490: Using JtaPlatform implementation: [org.hibernate.engine.transaction.jta.platform.internal.NoJtaPlatform]
2022-03-05 18:52:07.513  INFO 77000 --- [  restartedMain] j.LocalContainerEntityManagerFactoryBean : Initialized JPA EntityManagerFactory for persistence unit 'default'
2022-03-05 18:52:12.756  INFO 77000 --- [  restartedMain] o.s.b.d.a.OptionalLiveReloadServer       : LiveReload server is running on port 35729
2022-03-05 18:52:13.075  INFO 77000 --- [  restartedMain] o.s.b.w.embedded.tomcat.TomcatWebServer  : Tomcat started on port(s): 8080 (http) with context path '/210940120174'
2022-03-05 18:52:13.275  INFO 77000 --- [  restartedMain] com.app.Application                      : Started Application in 25.566 seconds (JVM running for 30.109)
2022-03-05 18:52:20.761  INFO 77000 --- [nio-8080-exec-1] o.a.c.c.C.[.[localhost].[/210940120174]  : Initializing Spring DispatcherServlet 'dispatcherServlet'
2022-03-05 18:52:20.762  INFO 77000 --- [nio-8080-exec-1] o.s.web.servlet.DispatcherServlet        : Initializing Servlet 'dispatcherServlet'
2022-03-05 18:52:20.770  INFO 77000 --- [nio-8080-exec-1] o.s.web.servlet.DispatcherServlet        : Completed initialization in 6 ms
Hibernate: select category0_.category_id as category1_0_, category0_.name as name2_0_ from categories category0_ order by category0_.category_id asc
Hibernate: select category0_.category_id as category1_0_, category0_.name as name2_0_ from categories category0_ where category0_.name=?
Hibernate: select employees0_.category_id as category5_1_0_, employees0_.employee_id as employee1_1_0_, employees0_.employee_id as employee1_1_1_, employees0_.address as address2_1_1_, employees0_.date_of_birth as date_of_3_1_1_, employees0_.category_id as category5_1_1_, employees0_.name as name4_1_1_ from employees employees0_ where employees0_.category_id=?
Hibernate: insert into employees (address, date_of_birth, category_id, name) values (?, ?, ?, ?)
Hibernate: select category0_.category_id as category1_0_, category0_.name as name2_0_ from categories category0_ order by category0_.category_id asc
Hibernate: select category0_.category_id as category1_0_, category0_.name as name2_0_ from categories category0_ where category0_.name=?
Hibernate: select employees0_.category_id as category5_1_0_, employees0_.employee_id as employee1_1_0_, employees0_.employee_id as employee1_1_1_, employees0_.address as address2_1_1_, employees0_.date_of_birth as date_of_3_1_1_, employees0_.category_id as category5_1_1_, employees0_.name as name4_1_1_ from employees employees0_ where employees0_.category_id=?
Hibernate: insert into employees (address, date_of_birth, category_id, name) values (?, ?, ?, ?)
Hibernate: select category0_.category_id as category1_0_, category0_.name as name2_0_ from categories category0_ order by category0_.category_id asc
Hibernate: select category0_.category_id as category1_0_0_, category0_.name as name2_0_0_ from categories category0_ where category0_.category_id=?
Hibernate: select employees0_.category_id as category5_1_0_, employees0_.employee_id as employee1_1_0_, employees0_.employee_id as employee1_1_1_, employees0_.address as address2_1_1_, employees0_.date_of_birth as date_of_3_1_1_, employees0_.category_id as category5_1_1_, employees0_.name as name4_1_1_ from employees employees0_ where employees0_.category_id=?
Hibernate: delete from employees where employee_id=?
Hibernate: delete from employees where employee_id=?
Hibernate: delete from categories where category_id=?
Hibernate: select category0_.category_id as category1_0_, category0_.name as name2_0_ from categories category0_ order by category0_.category_id asc
2022-03-05 19:06:04.617  INFO 77000 --- [n(26)-127.0.0.1] inMXBeanRegistrar$SpringApplicationAdmin : Application shutdown requested.
2022-03-05 19:06:04.677  INFO 77000 --- [n(26)-127.0.0.1] j.LocalContainerEntityManagerFactoryBean : Closing JPA EntityManagerFactory for persistence unit 'default'
2022-03-05 19:06:04.686  INFO 77000 --- [n(26)-127.0.0.1] com.zaxxer.hikari.HikariDataSource       : HikariPool-1 - Shutdown initiated...
2022-03-05 19:06:04.734  INFO 77000 --- [n(26)-127.0.0.1] com.zaxxer.hikari.HikariDataSource       : HikariPool-1 - Shutdown completed.
