using System;
namespace CDAC_FirstApp
{
    class Program
    {
        static void Main(string[] args)
        {
            Console.WriteLine("Hello CDAC, Good Morning Everyone");
            Console.ReadLine();
        }
    }
}
